<?xml version="1.0" standalone="no"?>
<!DOCTYPE svg PUBLIC "-//W3C//DTD SVG 1.1//EN" "http://www.w3.org/Graphics/SVG/1.1/DTD/svg11.dtd" >
<svg xmlns="http://www.w3.org/2000/svg">
<metadata>Generated by IcoMoon</metadata>
<defs>
<font id="cb-icons" horiz-adv-x="1024">
<font-face units-per-em="1024" ascent="960" descent="-64" />
<missing-glyph horiz-adv-x="1024" />
<glyph unicode="&#x20;" horiz-adv-x="512" d="" />
<glyph unicode="&#xe900;" glyph-name="mastodon" d="M989.568 623.829c0 222.123-145.536 287.232-145.536 287.232-73.387 33.707-199.424 47.872-330.283 48.939h-3.243c-130.901-1.067-256.853-15.232-330.24-48.939 0 0-145.536-65.109-145.536-287.232 0-50.859-0.981-111.701 0.64-176.171 5.291-217.259 39.851-431.317 240.683-484.48 92.587-24.491 172.117-29.653 236.16-26.112 116.139 6.4 181.333 41.472 181.333 41.472l-3.84 84.267c0 0-82.987-26.155-176.171-22.997-92.373 3.157-189.824 9.941-204.757 123.349-1.305 9.295-2.050 20.032-2.050 30.944 0 0.296 0.001 0.592 0.002 0.889v-0.046c0 0 90.667-22.187 205.525-27.435 70.229-3.2 136.107 4.139 203.008 12.075 128.299 15.317 240 94.379 254.037 166.613 22.059 113.707 20.267 277.632 20.267 277.632zM817.877 337.579h-106.539v261.077c0 55.040-23.168 82.944-69.461 82.944-51.2 0-76.885-33.109-76.885-98.645v-142.891h-105.941v142.933c0 65.536-25.685 98.645-76.885 98.645-46.293 0-69.461-27.947-69.461-82.944v-261.077h-106.539v268.928c0 54.997 13.995 98.688 42.112 130.987 29.013 32.341 66.944 48.896 114.091 48.896 54.528 0 95.829-20.949 123.136-62.891l26.496-44.501 26.539 44.501c27.307 41.941 68.608 62.891 123.136 62.891 47.104 0 85.077-16.555 114.091-48.896 28.075-32.299 42.069-75.989 42.069-130.987z" />
<glyph unicode="&#xf099;" glyph-name="twitter" horiz-adv-x="951" d="M925.714 717.714c-25.143-36.571-56.571-69.143-92.571-95.429 0.571-8 0.571-16 0.571-24 0-244-185.714-525.143-525.143-525.143-104.571 0-201.714 30.286-283.429 82.857 14.857-1.714 29.143-2.286 44.571-2.286 86.286 0 165.714 29.143 229.143 78.857-81.143 1.714-149.143 54.857-172.571 128 11.429-1.714 22.857-2.857 34.857-2.857 16.571 0 33.143 2.286 48.571 6.286-84.571 17.143-148 91.429-148 181.143v2.286c24.571-13.714 53.143-22.286 83.429-23.429-49.714 33.143-82.286 89.714-82.286 153.714 0 34.286 9.143 65.714 25.143 93.143 90.857-112 227.429-185.143 380.571-193.143-2.857 13.714-4.571 28-4.571 42.286 0 101.714 82.286 184.571 184.571 184.571 53.143 0 101.143-22.286 134.857-58.286 41.714 8 81.714 23.429 117.143 44.571-13.714-42.857-42.857-78.857-81.143-101.714 37.143 4 73.143 14.286 106.286 28.571z" />
<glyph unicode="&#xf09e;" glyph-name="feed, rss" horiz-adv-x="805" d="M219.429 182.857c0-60.571-49.143-109.714-109.714-109.714s-109.714 49.143-109.714 109.714 49.143 109.714 109.714 109.714 109.714-49.143 109.714-109.714zM512 112.571c0.571-10.286-2.857-20-9.714-27.429-6.857-8-16.571-12-26.857-12h-77.143c-18.857 0-34.286 14.286-36 33.143-16.571 174.286-154.857 312.571-329.143 329.143-18.857 1.714-33.143 17.143-33.143 36v77.143c0 10.286 4 20 12 26.857 6.286 6.286 15.429 9.714 24.571 9.714h2.857c121.714-9.714 236.571-62.857 322.857-149.714 86.857-86.286 140-201.143 149.714-322.857zM804.571 111.428c0.571-9.714-2.857-19.429-10.286-26.857-6.857-7.429-16-11.429-26.286-11.429h-81.714c-19.429 0-35.429 14.857-36.571 34.286-18.857 332-283.429 596.571-615.429 616-19.429 1.143-34.286 17.143-34.286 36v81.714c0 10.286 4 19.429 11.429 26.286 6.857 6.857 16 10.286 25.143 10.286h1.714c200-10.286 388-94.286 529.714-236.571 142.286-141.714 226.286-329.714 236.571-529.714z" />
</font></defs></svg>